10:15:48 066	瑞芯微开发工具 v1.6.9.0 start run
10:16:14 206	<Layer 2-1-2> 下载Boot开始
10:16:15 471	<Layer 2-1-2> 下载Boot成功
10:16:15 474	<Layer 2-1-2> 等待Maskrom开始
10:16:16 309	<Layer 2-1-2> 等待Maskrom成功
10:16:16 311	<Layer 2-1-2> 测试设备开始
10:16:16 313	<Layer 2-1-2> 测试设备成功
10:16:16 317	<Layer 2-1-2> 校验芯片开始
10:16:16 323	<Layer 2-1-2> 校验芯片成功
10:16:16 326	<Layer 2-1-2> 获取FlashInfo开始
10:16:16 349	<LAYER 2-1-2> INFO:FlashInfo: 0 0 80 0 80 0 4 0 32 EF 1
10:16:16 353	<Layer 2-1-2> 获取FlashInfo成功
10:16:16 356	<Layer 2-1-2> 准备IDB开始
10:16:16 357	<LAYER 2-1-2> INFO:CS(1)		(4096MB)		(UNKNOWN)
10:16:16 399	<Layer 2-1-2> 准备IDB成功
10:16:16 402	<Layer 2-1-2> 下载IDB开始
10:16:17 739	<Layer 2-1-2> 下载IDB成功
10:16:17 742	<Layer 2-1-2> 互斥重启设备开始
10:16:17 824	<Layer 2-1-2> 重启设备开始
10:16:17 827	<Layer 2-1-2> 重启设备成功
10:16:19 879	<Layer 2-1-2>--><Layer 2-1-2> 互斥重启设备成功
10:16:19 882	<Layer 2-1-2> 测试设备开始
10:16:19 885	<Layer 2-1-2> 测试设备成功
10:16:19 888	<Layer 2-1-2> 下载固件开始
10:16:21 794	<Layer 2-1-2> 下载固件成功
10:16:21 828	<Layer 2-1-2> 重启设备开始
10:16:22 833	<Layer 2-1-2> 重启设备成功
